…
    # 5. Convert Character Year & species to Factor
    mutate(Year = as_factor(Year)) %>%
    mutate(species = as.factor(species)) %>%
    
    # 6. Percents by year
    group_by(Year) %>%
    mutate(percent = number / sum(number)) %>%
    mutate(label = scales::percent(percent)) %>%
    ungroup()

endangered_species_final_tbl
```

    ## # A tibble: 190 x 5
    ##    Year  species             number percent label
    ##    <fct> <fct>                <dbl>   <dbl> <chr>
    ##  1 2019  Mammals                203 0.0331  3.3% 
    ##  2 2019  Birds                  224 0.0366  3.7% 
    ##  3 2019  Reptiles               303 0.0495  4.9% 
    ##  4 2019  Amphibians             575 0.0938  9.4% 
    ##  5 2019  Fishes                 549 0.0896  9.0% 
    ##  6 2019  Insects                311 0.0508  5.1% 
    ##  7 2019  Molluscs               658 0.107   10.7%
    ##  8 2019  Other invertebrates    263 0.0429  4.3% 
    ##  9 2019  Plants                3027 0.494   49.4%
    ## 10 2019  Fungi & protists        14 0.00228 0.2% 
    ## # … with 180 more rows
…
